…
Problems

Problem 1: (10 pts) Write R code that counts the number of reviews for each company location and calculates a minimum and a maximum ratings of each company location. Filter your output for countries with more than 20 reviews, and order your output from highest to lowest number of reviews.

locs <- flavors_of_cacao %>% count(location) %>% filter(n>20)

df <- flavors_of_cacao %>% 
  filter(location %in% locs$location) %>% group_by(location,company) %>% 
  summarise(num_reviews = n(), min_rating = min(rating), max_rating = max(rating)) %>% 
  arrange(desc(num_reviews))

df

## # A tibble: 313 x 5
## # Groups:   location [14]
##    location company                    num_reviews min_rating max_rating
##    <chr>    <chr>                            <int>      <dbl>      <dbl>
##  1 Canada   Soma                                47       2.75       4   
##  2 France   Bonnat                              27       1.5        4   
##  3 U.S.A.   Fresco                              26       2.75       4   
##  4 France   Pralus                              25       2          4   
##  5 France   A. Morin                            23       2.75       4   
##  6 Italy    Domori                              22       3          4   
##  7 U.S.A.   Arete                               22       2.75       4   
##  8 U.S.A.   Guittard                            22       2.5        3.75
##  9 France   Valrhona                            21       1.5        4   
## 10 U.K.     Hotel Chocolat (Coppeneur)          19       2.5        3.5 
## # ... with 303 more rows
…
